Análise Integrada de Paisagem: [Bom Jesus do Tocantins] ([PA]) – Ecologiaexercicio
…
  mutate(
    classe_nome = "Formação Florestal"
  ) %>%
  select(
    classe_nome,
    id,
    value
  ) %>%
  rename(
    Classe = classe_nome,
    Fragmento = id,
    Area = value
  )

# A tibble: 3,834 × 3
   Classe             Fragmento       Area
   <chr>                  <int>      <dbl>
 1 Formação Florestal         1 63026.    
 2 Formação Florestal         2     1.07  
 3 Formação Florestal         3     0.0891
 4 Formação Florestal         4     1.07  
 5 Formação Florestal         5     2.41  
 6 Formação Florestal         6     7.57  
 7 Formação Florestal         7     0.178 
 8 Formação Florestal         8     1.51  
 9 Formação Florestal         9    18.0   
10 Formação Florestal        10     4.01  
# ℹ 3,824 more rows
…
  mutate(
    classe_nome = "Formação Florestal"
  ) %>%
  select(
    classe_nome,
    id,
    value
  ) %>%
  rename(
    Classe = classe_nome,
    Fragmento = id,
    Area1985 = value
  )

# A tibble: 1,679 × 3
   Classe             Fragmento   Area1985
   <chr>                  <int>      <dbl>
 1 Formação Florestal         1 214212.   
 2 Formação Florestal         2      0.891
 3 Formação Florestal         3      1.25 
 4 Formação Florestal         4      0.891
 5 Formação Florestal         5      7.66 
 6 Formação Florestal         6      7.57 
 7 Formação Florestal         7      0.178
 8 Formação Florestal         8      0.624
 9 Formação Florestal         9      1.34 
10 Formação Florestal        10      5.08 
# ℹ 1,669 more rows
…
  tabela_i <- tabela_i %>%
    mutate(
      Paisagem = i,
      Classe = legendatab[as.character(class)],
      SHDI = shdi
    )
  
  lista_metricas[[i]] <- tabela_i
}

tabela_paisagens <- bind_rows(lista_metricas)

print(tabela_paisagens)

# A tibble: 43 × 9
   class  PLAND    NP    AI  EDGE ENN_MEAN Paisagem Classe                  SHDI
   <int>  <dbl> <dbl> <dbl> <dbl>    <dbl>    <int> <chr>                  <dbl>
 1     3 55.7       7  95.3 37.5     145.         1 Formação Florestal     0.687
 2    15 44.3       6  93.8 37.5     172.         1 Pastagem               0.687
 3     3 37.4       5  97.3 18.7     275.         2 Formação Florestal     0.679
 4    15 62.3       2  97.5 19.8     369.         2 Pastagem               0.679
 5    41  0.284     2  69.4  1.16     59.7        2 Outras Lavouras Tempo… 0.679
 6     3 14.4       3  96.0 12.3     275.         3 Formação Florestal     0.573
 7    15 81.6       2  97.2 28.9      59.7        3 Pastagem               0.573
 8    41  4.02     11  71.3 16.6     152.         3 Outras Lavouras Tempo… 0.573
 9     3 51.9      17  97.2 23.7      84.7        4 Formação Florestal     0.692
10    15 48.1       3  96.3 23.7     304.         4 Pastagem               0.692
# ℹ 33 more rows
…
